<?xml version="1.0" encoding="UTF-8" standalone="no"?>
<svg
   xmlns:dc="http://purl.org/dc/elements/1.1/"
   xmlns:cc="http://creativecommons.org/ns#"
   xmlns:rdf="http://www.w3.org/1999/02/22-rdf-syntax-ns#"
   xmlns:svg="http://www.w3.org/2000/svg"
   xmlns="http://www.w3.org/2000/svg"
   xmlns:sodipodi="http://sodipodi.sourceforge.net/DTD/sodipodi-0.dtd"
   xmlns:inkscape="http://www.inkscape.org/namespaces/inkscape"
   data-name="Layer 1"
   viewBox="0 0 100 125"
   x="0px"
   y="0px"
   version="1.1"
   id="svg10"
   sodipodi:docname="finance.svg"
   inkscape:version="0.92.3 (2405546, 2018-03-11)">
  <metadata
     id="metadata16">
    <rdf:RDF>
      <cc:Work
         rdf:about="">
        <dc:format>image/svg+xml</dc:format>
        <dc:type
           rdf:resource="http://purl.org/dc/dcmitype/StillImage" />
      </cc:Work>
    </rdf:RDF>
  </metadata>
  <defs
     id="defs14" />
  <sodipodi:namedview
     pagecolor="#ffffff"
     bordercolor="#666666"
     borderopacity="1"
     objecttolerance="10"
     gridtolerance="10"
     guidetolerance="10"
     inkscape:pageopacity="0"
     inkscape:pageshadow="2"
     inkscape:window-width="640"
     inkscape:window-height="480"
     id="namedview12"
     showgrid="false"
     inkscape:zoom="1.888"
     inkscape:cx="50"
     inkscape:cy="62.5"
     inkscape:window-x="0"
     inkscape:window-y="0"
     inkscape:window-maximized="0"
     inkscape:current-layer="svg10" />
  <title
     id="title2">Artboard 5</title>
  <path
     d="M58.21,44.67A6.25,6.25,0,1,1,52,38.42,6.25,6.25,0,0,1,58.21,44.67Zm40.79,0a4.64,4.64,0,0,1-4.64,4.78H92a32.42,32.42,0,0,1-8.54,17,2.77,2.77,0,0,0-.63,1.08l-6,20.84A2.36,2.36,0,0,1,74.52,90H67.34a2.36,2.36,0,0,1-2.28-1.77l-2.31-8.93a1.35,1.35,0,0,0-1.57-.94,46.39,46.39,0,0,1-17.63,0,1.35,1.35,0,0,0-1.57.94l-2.31,8.93A2.36,2.36,0,0,1,37.39,90H30.21a2.36,2.36,0,0,1-2.27-1.71L23.37,72.24a2.79,2.79,0,0,0-1.51-1.72A72,72,0,0,1,3.51,58.88,7.66,7.66,0,0,1,1,53.2V42.32a4.78,4.78,0,0,1,4.78-4.78h4.36l8.06-11A14.5,14.5,0,0,0,13.92,18a2.81,2.81,0,0,1,1.89-4.71c6-.49,10.31,1.14,13.22,3.14A44.07,44.07,0,0,1,52.36,10C72.7,10,89.47,23.11,92,40.13h2.16A4.77,4.77,0,0,1,99,44.63ZM73.75,43.29a2.51,2.51,0,0,0-2.08-2.47l-3.26-.57a16.92,16.92,0,0,0-1.69-4.07l1.9-2.71a2.51,2.51,0,0,0-.28-3.22l-2-2A2.51,2.51,0,0,0,63.17,28l-2.71,1.9a16.92,16.92,0,0,0-4.07-1.69L55.82,25a2.51,2.51,0,0,0-2.47-2.08H50.57A2.51,2.51,0,0,0,48.1,25l-.57,3.26a16.94,16.94,0,0,0-4.07,1.69L40.75,28a2.51,2.51,0,0,0-3.22.28l-2,2a2.51,2.51,0,0,0-.28,3.22l1.9,2.71a16.91,16.91,0,0,0-1.69,4.07l-3.26.57a2.51,2.51,0,0,0-2.08,2.47v2.77a2.51,2.51,0,0,0,2.08,2.47l3.26.57a16.9,16.9,0,0,0,1.69,4.07l-1.9,2.71a2.51,2.51,0,0,0,.28,3.22l2,2a2.51,2.51,0,0,0,3.22.28l2.71-1.9a17,17,0,0,0,4.07,1.69l.57,3.26a2.51,2.51,0,0,0,2.47,2.08h2.77a2.51,2.51,0,0,0,2.47-2.08l.57-3.26a16.94,16.94,0,0,0,4.07-1.69l2.71,1.9a2.51,2.51,0,0,0,3.22-.28l2-2a2.51,2.51,0,0,0,.28-3.22l-1.9-2.72a16.92,16.92,0,0,0,1.69-4.07l3.26-.57a2.51,2.51,0,0,0,2.08-2.47Z"
     id="path4" />
</svg>
